Estimating a Bayes factor using bridge sampling
…
     post
pre     0
post    1

In the output of the contrasts() function the column post shows the indicator variable that we will get, and the rows show the values it takes when the trial is from the pre or post condition, respectively.

Our formula will look like this: response ~ 1 + treatment. However, dont simply want to estimate the avarage effect using a complete pooling modelwe want to account for the fatc that every subject has their of mean response in the pre condition, and their own effect of the treatment, i.e.difference between pre and post treatment conditions.

We know (because we generated the data), that the average response in the pre condition is \(\alpha = 2\) and the average difference between pre and post is \(\beta = 0.5\), but if we look at the individual subjects, each one has their own effects \(a_j\) and \(b_j\). We want to simultaneously estimate the average effects, and the individual effects.

d |> 
  group_by(subject) |> slice_head(n = 1)

# A tibble: 30 x 8
# Groups:   subject [30]
   subject    a_j    b_j  post     mu sigma treatment response
   <fct>    <dbl>  <dbl> <dbl>  <dbl> <dbl> <fct>        <dbl>
 1 1       2.22    1.39      0 2.22     0.5 pre          1.96 
 2 2       0.0683  1.11      0 0.0683   0.5 pre         -0.213
 3 3       3.46   -0.441     0 3.46     0.5 pre          3.12 
 4 4       1.61    2.25      0 1.61     0.5 pre          2.21 
 5 5       0.844   0.496     0 0.844    0.5 pre          1.46 
 6 6       1.52    0.510     0 1.52     0.5 pre          1.23 
 7 7       2.13    0.436     0 2.13     0.5 pre          2.02 
 8 8       1.75    1.92      0 1.75     0.5 pre          0.653
 9 9       2.20   -2.16      0 2.20     0.5 pre          2.23 
10 10      1.12    2.31      0 1.12     0.5 pre          1.01 
#  with 20 more rows
…
[1] 3.05984

This results in a Bayes factor that is very similar to the one obtained via bridge sampling.

Traditional methods

For comparison, lets look at traditional ways of analyzing these data. The most common way to do this would be to perfom the data analysis at two levels. At the first level, we sumarise the data per subject and condition, aggregating over trials (Here we are ignoring our uncertainty in the subject means).

d_sum <- d |> 
  group_by(subject, treatment) |> 
  summarise(response = mean(response)) 

d_sum

# A tibble: 60 x 3
# Groups:   subject [30]
   subject treatment response
   <fct>   <fct>        <dbl>
 1 1       pre          2.26 
 2 1       post         3.55 
 3 2       pre          0.198
 4 2       post         1.34 
 5 3       pre          3.35 
 6 3       post         3.12 
 7 4       pre          1.73 
 8 4       post         4.13 
 9 5       pre          0.777
10 5       post         1.19 
#  with 50 more rows
…
