Learn multilevel models: An Introduction to brms
…
grid

# A tibble: 2 x 1
  group
  <fct>
1 A    
2 B    

We can the use add_fitted_draws() to obtain the values of the linear predictor, which in this case will be either the Intercept for group A, or Intercept + groupB for group B.

grid |> 
  add_fitted_draws(m1)

# A tibble: 8,000 x 6
# Groups:   group, .row [2]
   group  .row .chain .iteration .draw .value
   <fct> <int>  <int>      <int> <int>  <dbl>
 1 A         1     NA         NA     1   19.2
 2 A         1     NA         NA     2   19.5
 3 A         1     NA         NA     3   19.7
 4 A         1     NA         NA     4   18.1
 5 A         1     NA         NA     5   18.4
 6 A         1     NA         NA     6   18.8
 7 A         1     NA         NA     7   19.1
 8 A         1     NA         NA     8   19.2
 9 A         1     NA         NA     9   18.7
10 A         1     NA         NA    10   18.5
#  with 7,990 more rows
…
