Learn multilevel models: Multilevel models
…
varying effects

We are not just interested in the population-level effect; we want the subject effects too.

While you can get these using the ranef() function (ranef(m3) gives you a summary, you have to set summary = FALSE to get the samples (ranef(m3, summary = FALSE)).

I really like using tidybayes for this, as its functions return tidy data frames.

If we want just the varying effects, we can use r_subject[subject] with the placeholer subject. This will be replaced by the subject ID

m3 |> 
  spread_draws(r_subject[subject])

# A tibble: 12,000 x 5
# Groups:   subject [3]
   subject r_subject .chain .iteration .draw
   <chr>       <dbl>  <int>      <int> <int>
 1 A          -1.05       1          1     1
 2 A          -2.29       1          2     2
 3 A          -0.751      1          3     3
 4 A          -1.98       1          4     4
 5 A          -1.70       1          5     5
 6 A          -1.21       1          6     6
 7 A          -1.05       1          7     7
 8 A          -1.15       1          8     8
 9 A          -0.565      1          9     9
10 A          -0.888      1         10    10
#  with 11,990 more rows
…
