Learn multilevel models: Models for Binary Data
…
Count the number of subjects and number of trials per set size for each subjetc.

recall |> distinct(subj) |> count()

# A tibble: 1 x 1
      n
  <int>
1    20

recall |> count(subj, set_size)

# A tibble: 80 x 3
   subj  set_size     n
   <fct>    <dbl> <int>
 1 1            2    92
 2 1            4   138
 3 1            6   184
 4 1            8   230
 5 2            2    92
 6 2            4   138
 7 2            6   184
 8 2            8   230
 9 3            2    92
10 3            4   138
# … with 70 more rows

The latter is equivalent to:

recall |> group_by(subj, set_size) |>
  summarize(N = n())

# A tibble: 80 x 3
# Groups:   subj [20]
   subj  set_size     N
   <fct>    <dbl> <int>
 1 1            2    92
 2 1            4   138
 3 1            6   184
 4 1            8   230
 5 2            2    92
 6 2            4   138
 7 2            6   184
 8 2            8   230
 9 3            2    92
10 3            4   138
# … with 70 more rows
…
library(tidybayes)

fit_1pl |> 
  spread_draws(r_id[id,Intercept])

# A tibble: 1,264,000 x 6
# Groups:   id, Intercept [316]
      id Intercept   r_id .chain .iteration .draw
   <int> <chr>      <dbl>  <int>      <int> <int>
 1     1 Intercept -0.720      1          1     1
 2     1 Intercept -0.368      1          2     2
 3     1 Intercept -0.772      1          3     3
 4     1 Intercept -0.757      1          4     4
 5     1 Intercept -0.487      1          5     5
 6     1 Intercept -0.632      1          6     6
 7     1 Intercept -0.624      1          7     7
 8     1 Intercept -0.672      1          8     8
 9     1 Intercept -0.576      1          9     9
10     1 Intercept -0.561      1         10    10
# … with 1,263,990 more rows
…
